<?xml version="1.0" encoding="utf-8"?>
<!-- Generator: Adobe Illustrator 22.1.0, SVG Export Plug-In . SVG Version: 6.00 Build 0)  -->
<svg version="1.1" id="Layer_1" xmlns="http://www.w3.org/2000/svg" xmlns:xlink="http://www.w3.org/1999/xlink" x="0px" y="0px"
	 viewBox="0 0 45 70" style="enable-background:new 0 0 45 70;" xml:space="preserve">
<style type="text/css">
	.st0{fill:#FFFFFF;}
</style>
<g>
	<path class="st0" d="M15.8,47.6c-0.4,1-0.7,2.1-1.1,3.1c-1.6,3.8-3.2,2-4.3,10.7c-0.3,2.1-1.6,3.3-1.6,3.3s-1.6,1.9-1.6,3.6
		c0,1.7,1.9,2.1,2.5,1.2c0.5-0.9,0.7-1.8,0.7-1.8l0.7-1.4l1.3-4c2.8-4,4.7-5.7,4.7-8.3c1.1-1.8,3.3-3.8,4-5.5
		C18.9,48.4,17.1,48,15.8,47.6z"/>
	<path class="st0" d="M36.3,63.5c-0.7-0.4-2.7-0.8-2.7-4.3c0.1-3.6-0.1-8,0.1-8.4c0.2-0.4,1.1-2.5-0.4-4.2c-0.4-0.5-0.7-0.9-0.9-1.2
		c-0.9,0.9-2.2,1.7-4,2.3c0.7,0.5,1.9,1.5,1.5,3c-0.6,2.1-0.4,6.1,0.7,8.1c1.1,2.1,0.4,4.6,0.4,4.6s-0.6,1.1,0.7,1.2
		c1.3,0.1,1.8,0.5,2.5,0.9c0.6,0.4,1.7,1,3.9,1.2C40.2,66.8,37,63.9,36.3,63.5z"/>
	<path class="st0" d="M43.4,17.7C41.2,11,37.8,6,35.8,6.7c-2,0.6-2,6.5,0,13.1l0,0l1.2,3.4c0,0,0,0,0,0c2.1,5.1,4.8,8.5,6.5,8
		C45.6,30.5,45.5,24.5,43.4,17.7z"/>
	<path class="st0" d="M16.5,14.7c0,0.6,0.1,1.1,0.2,1.6c1.4-4.3,7-4.2,7-4.2l0,0l0-1C19.8,10.2,16.7,11.7,16.5,14.7z"/>
	<g>
		<path class="st0" d="M29.2,26.1c1.4,0.2,5-1.9,6.9-2.6L34.9,20l-5,1.7c-0.5-0.2-2.4-0.3-2.4-0.3l-4.7,0.5l0.1-2.1l2,0.1
			c0,0,0.1-2.4,0.2-3.6c0-0.8-0.7-2.5-1.1-3.3l-0.2,0c-0.3,0-5.6,0-6.3,4.2c0,0.1,0,0.3-0.1,0.4c0.7,1.1,1.7,1.8,1.7,1.8
			c0.4,2.1-1.4,3-1.4,3c-1.2-1-5-1.6-5-1.6c-3.7-1.1-7-7-8.2-9.4l-1.6,0.7c2.5,9.5,10.1,13.4,10.1,13.4s2.3,4.3,4,9.6l-2.7,11l0.1,0
			c0.1,0,4.6,2,10.5,1.4c5.7-0.6,7.7-3.1,8.7-4.9l0.1-0.2L26.3,34C27.1,29.8,29.2,26.1,29.2,26.1z"/>
		<path class="st0" d="M1.8,11.6l2.2-1c0,0,0,0,0,0l2.6-1.2L6.2,8.8l0,0C18.9,3.3,19.8,0,19.8,0C16.9,0.3,5.6,8,5.6,8L5.1,7.5L0,11
			l0.7,1.1L1.8,11.6L1.8,11.6z"/>
	</g>
</g>
</svg>
